fitting_heidi • heidi
…
Let’s see the function in action.

my_model_function(c(.1, .2, .4, .3), model_args = my_mod_args)
#> # A tibble: 24 x 4
#>    us    block response   value
#>    <chr> <dbl> <chr>      <dbl>
#>  1 P         1 lp       0.0114 
#>  2 P         1 np       0.00229
#>  3 P         2 lp       0.0388 
#>  4 P         2 np       0.0172 
#>  5 P         3 lp       0.0492 
#>  6 P         3 np       0.0332 
#>  7 P         4 lp       0.0542 
#>  8 P         4 np       0.0456 
#>  9 P         5 lp       0.0570 
#> 10 P         5 np       0.0548 
#> # ... with 14 more rows

And just as a refresher, here’s the summarised empirical data.

pati_summ
#> # A tibble: 24 x 4
#>    block us    response rpert
#>    <dbl> <chr> <fct>    <dbl>
#>  1     1 P     lp       0.820
#>  2     1 P     np       3.41 
#>  3     1 S     lp       0.561
#>  4     1 S     np       3.28 
#>  5     2 P     lp       1.57 
#>  6     2 P     np       3.51 
#>  7     2 S     lp       0.641
#>  8     2 S     np       3.07 
#>  9     3 P     lp       2.29 
#> 10     3 P     np       3.07 
#> # ... with 14 more rows
…
