calmr_fits • calmr
…
We can now begin to write the model function. First, it would be a
good idea to see what results run_experiment returns.

exp_res <- run_experiment(experiment)
results(exp_res)
#> $as
#> # A tibble: 352 × 8
#>    model  group trial trial_type phase    s1    block_size value
#>    <chr>  <chr> <int> <chr>      <chr>    <chr>      <dbl> <dbl>
#>  1 HD2022 CB1       1 L>(Pellet) training L              2   0.4
#>  2 HD2022 CB1       2 L>(Pellet) training L              2   0.4
#>  3 HD2022 CB1       3 L>(Pellet) training L              2   0.4
#>  4 HD2022 CB1       4 L>(Pellet) training L              2   0.4
#>  5 HD2022 CB1       5 L>(Pellet) training L              2   0.4
#>  6 HD2022 CB1       6 L>(Pellet) training L              2   0.4
#>  7 HD2022 CB1       7 L>(Pellet) training L              2   0.4
#>  8 HD2022 CB1       8 L>(Pellet) training L              2   0.4
#>  9 HD2022 CB1       9 L>(Pellet) training L              2   0.4
#> 10 HD2022 CB1      10 L>(Pellet) training L              2   0.4
#> # ℹ 342 more rows
#> 
#> $acts
#> # A tibble: 704 × 10
#>    model  group trial trial_type phase    s1    s2    block_size type    value
#>    <chr>  <chr> <int> <chr>      <chr>    <chr> <chr>      <dbl> <chr>   <dbl>
#>  1 HD2022 CB1       1 L>(Pellet) training L     L              2 chainvs     0
#>  2 HD2022 CB1       2 L>(Pellet) training L     L              2 chainvs     0
#>  3 HD2022 CB1       3 L>(Pellet) training L     L              2 chainvs     0
#>  4 HD2022 CB1       4 L>(Pellet) training L     L              2 chainvs     0
#>  5 HD2022 CB1       5 L>(Pellet) training L     L              2 chainvs     0
#>  6 HD2022 CB1       6 L>(Pellet) training L     L              2 chainvs     0
#>  7 HD2022 CB1       7 L>(Pellet) training L     L              2 chainvs     0
#>  8 HD2022 CB1       8 L>(Pellet) training L     L              2 chainvs     0
#>  9 HD2022 CB1       9 L>(Pellet) training L     L              2 chainvs     0
#> 10 HD2022 CB1      10 L>(Pellet) training L     L              2 chainvs     0
#> # ℹ 694 more rows
#> 
#> $rs
#> # A tibble: 1,408 × 9
#>    model  group trial trial_type phase    s1    s2    block_size value
#>    <chr>  <chr> <int> <chr>      <chr>    <chr> <chr>      <dbl> <dbl>
#>  1 HD2022 CB1       1 L>(Pellet) training L     L              2     0
#>  2 HD2022 CB1       2 L>(Pellet) training L     L              2     0
#>  3 HD2022 CB1       3 L>(Pellet) training L     L              2     0
#>  4 HD2022 CB1       4 L>(Pellet) training L     L              2     0
#>  5 HD2022 CB1       5 L>(Pellet) training L     L              2     0
#>  6 HD2022 CB1       6 L>(Pellet) training L     L              2     0
#>  7 HD2022 CB1       7 L>(Pellet) training L     L              2     0
#>  8 HD2022 CB1       8 L>(Pellet) training L     L              2     0
#>  9 HD2022 CB1       9 L>(Pellet) training L     L              2     0
#> 10 HD2022 CB1      10 L>(Pellet) training L     L              2     0
#> # ℹ 1,398 more rows
#> 
#> $vs
#> # A tibble: 1,408 × 9
#>    model  group trial trial_type phase    s1    s2    block_size value
#>    <chr>  <chr> <int> <chr>      <chr>    <chr> <chr>      <dbl> <dbl>
#>  1 HD2022 CB1       1 L>(Pellet) training L     L              2     0
#>  2 HD2022 CB1       2 L>(Pellet) training L     L              2     0
#>  3 HD2022 CB1       3 L>(Pellet) training L     L              2     0
#>  4 HD2022 CB1       4 L>(Pellet) training L     L              2     0
#>  5 HD2022 CB1       5 L>(Pellet) training L     L              2     0
#>  6 HD2022 CB1       6 L>(Pellet) training L     L              2     0
#>  7 HD2022 CB1       7 L>(Pellet) training L     L              2     0
#>  8 HD2022 CB1       8 L>(Pellet) training L     L              2     0
#>  9 HD2022 CB1       9 L>(Pellet) training L     L              2     0
#> 10 HD2022 CB1      10 L>(Pellet) training L     L              2     0
#> # ℹ 1,398 more rows
…
